…
    #Create training set
    train <- df %>% sample_frac(.70)

    table(train$conifer)

    ## 
    ## FALSE  TRUE 
    ##  3374 41598

    #Create test set
    test  <- anti_join(df, train, by = 'ID')
    test

    ## # A tibble: 19,274 x 30
    ##       ID      x      y burnSev forestType SAP_surv_conife… SAP_burn elevation
    ##    <int>  <dbl>  <dbl> <fct>   <fct>                 <dbl>    <dbl>     <dbl>
    ##  1     8 475755 4.64e6 3       556                  0.0344    0.114      1665
    ##  2    13 475755 4.64e6 3       556                  0.0344    0.114      1678
    ##  3    17 475485 4.64e6 3       556                  0.0398    0.163      1680
    ##  4    19 475515 4.64e6 3       556                  0.0416    0.170      1714
    ##  5    20 475425 4.64e6 4       556                  0.0362    0.177      1692
    ##  6    21 475455 4.64e6 3       556                  0.0398    0.184      1697
    ##  7    22 475485 4.64e6 3       556                  0.0416    0.184      1702
    ##  8    23 475545 4.64e6 3       556                  0.0416    0.184      1727
    ##  9    27 464505 4.64e6 4       552                  0.373     0.318      1531
    ## 10    28 475785 4.64e6 3       556                  0.0271    0.136      1662
    ## # … with 19,264 more rows, and 22 more variables: slope <dbl>, aspect <dbl>,
    ## #   northness <dbl>, eastness <dbl>, CWD <dbl>, AvGppt <dbl>, AvGTemp <dbl>,
    ## #   SolarLoad <dbl>, SUID <fct>, landfire2016 <dbl>, plantedFirst5Years <lgl>,
    ## #   plant_date <date>, SPB <lgl>, SPO <lgl>, SPMec <lgl>,
    ## #   plantedAfter5Yrs <lgl>, latestSurveyNatDensity <dbl>,
    ## #   certified_plantedIn6Years <lgl>, LAND_SUITA <fct>, PRODUCTIVI <fct>,
    ## #   EVT_PHYS <fct>, conifer <lgl>
…
