…
    ## Note: Using an external vector in selections is ambiguous.
    ## ℹ Use `all_of(landcover)` instead of `landcover` to silence this message.
    ## ℹ See <https://tidyselect.r-lib.org/reference/faq-external-vector.html>.
    ## This message is displayed once per session.

    df_lc

    ## # A tibble: 262,520 x 6
    ##    pixelID clusterID NLCD_year landcover_code land_cover_name   year
    ##    <chr>   <fct>     <chr>              <dbl> <chr>            <dbl>
    ##  1 1       0         NLCD1992              42 evergreen_forest  1992
    ##  2 2       0         NLCD1992              71 grass_herb        1992
    ##  3 3       0         NLCD1992              42 evergreen_forest  1992
    ##  4 4       0         NLCD1992              42 evergreen_forest  1992
    ##  5 5       0         NLCD1992              42 evergreen_forest  1992
    ##  6 6       0         NLCD1992              71 grass_herb        1992
    ##  7 7       0         NLCD1992              71 grass_herb        1992
    ##  8 8       0         NLCD1992              71 grass_herb        1992
    ##  9 9       0         NLCD1992              42 evergreen_forest  1992
    ## 10 10      0         NLCD1992              42 evergreen_forest  1992
    ## # … with 262,510 more rows
…
    TCC <- names(df)[grep(names(df), pattern = "TCC")]

    df_tcc <- df %>%
      select(pixelID, clusterID, TCC) %>%
      gather(TCC, key = "TCCyear", value = "pct_TCC") %>% 
      mutate(year = as.numeric(gsub("TCC", "", TCCyear)))

    ## Note: Using an external vector in selections is ambiguous.
    ## ℹ Use `all_of(TCC)` instead of `TCC` to silence this message.
    ## ℹ See <https://tidyselect.r-lib.org/reference/faq-external-vector.html>.
    ## This message is displayed once per session.

    df_tcc

    ## # A tibble: 98,445 x 5
    ##    pixelID clusterID TCCyear pct_TCC  year
    ##    <chr>   <fct>     <chr>     <dbl> <dbl>
    ##  1 1       0         TCC2000      30  2000
    ##  2 2       0         TCC2000       1  2000
    ##  3 3       0         TCC2000      49  2000
    ##  4 4       0         TCC2000      61  2000
    ##  5 5       0         TCC2000      66  2000
    ##  6 6       0         TCC2000       0  2000
    ##  7 7       0         TCC2000       0  2000
    ##  8 8       0         TCC2000      57  2000
    ##  9 9       0         TCC2000      69  2000
    ## 10 10      0         TCC2000      54  2000
    ## # … with 98,435 more rows
…
    years <- as.character(1985:2017)
    df_nbr <- df %>%
      select(pixelID, clusterID, years) %>%
      gather(years, key = "year_string", value = "NBR") %>%
      mutate(year = as.numeric(year_string)) %>%
      select(-year_string, -clusterID) 

    ## Note: Using an external vector in selections is ambiguous.
    ## ℹ Use `all_of(years)` instead of `years` to silence this message.
    ## ℹ See <https://tidyselect.r-lib.org/reference/faq-external-vector.html>.
    ## This message is displayed once per session.

    df_nbr 

    ## # A tibble: 1,082,895 x 3
    ##    pixelID   NBR  year
    ##    <chr>   <dbl> <dbl>
    ##  1 1        745.  1985
    ##  2 2        617.  1985
    ##  3 3        414.  1985
    ##  4 4        682.  1985
    ##  5 5        729.  1985
    ##  6 6        764.  1985
    ##  7 7        489.  1985
    ##  8 8        603.  1985
    ##  9 9        736.  1985
    ## 10 10       632.  1985
    ## # … with 1,082,885 more rows
…
    ## Note: Using an external vector in selections is ambiguous.
    ## ℹ Use `all_of(facts_cols)` instead of `facts_cols` to silence this message.
    ## ℹ See <https://tidyselect.r-lib.org/reference/faq-external-vector.html>.
    ## This message is displayed once per session.

    df_facts

    ## # A tibble: 1,050,080 x 6
    ##    pixelID clusterID facts_year factsTreatmentCode factsTreatment  year
    ##    <chr>   <fct>     <chr>                   <dbl> <chr>          <dbl>
    ##  1 1       0         facts1987                   0 none            1987
    ##  2 2       0         facts1987                   0 none            1987
    ##  3 3       0         facts1987                   0 none            1987
    ##  4 4       0         facts1987                   0 none            1987
    ##  5 5       0         facts1987                   0 none            1987
    ##  6 6       0         facts1987                   0 none            1987
    ##  7 7       0         facts1987                   0 none            1987
    ##  8 8       0         facts1987                   0 none            1987
    ##  9 9       0         facts1987                   0 none            1987
    ## 10 10      0         facts1987                   0 none            1987
    ## # … with 1,050,070 more rows
…
    df

    ## # A tibble: 1,003,068 x 24
    ##    pixelID clusterID.x FIRE_YEAR FireID burnSev distance northness eastness
    ##    <chr>   <fct>           <dbl> <chr>    <dbl>    <dbl>     <dbl>    <dbl>
    ##  1 1       0                1987 00000…       0        0    -0.563    0.827
    ##  2 1       0                1987 00000…       0        0    -0.563    0.827
    ##  3 1       0                1987 00000…       0        0    -0.563    0.827
    ##  4 1       0                1987 00000…       0        0    -0.563    0.827
    ##  5 1       0                1987 00000…       0        0    -0.563    0.827
    ##  6 1       0                1987 00000…       0        0    -0.563    0.827
    ##  7 1       0                1987 00000…       0        0    -0.563    0.827
    ##  8 1       0                1987 00000…       0        0    -0.563    0.827
    ##  9 1       0                1987 00000…       0        0    -0.563    0.827
    ## 10 1       0                1987 00000…       0        0    -0.563    0.827
    ## # … with 1,003,058 more rows, and 16 more variables: elevation <dbl>,
    ## #   slope <dbl>, ecotype_code <dbl>, WID <dbl>, NBR <dbl>, year <dbl>,
    ## #   clusterID.y <fct>, NLCD_year <chr>, landcover_code <dbl>,
    ## #   land_cover_name <chr>, clusterID <fct>, facts_year <chr>,
    ## #   factsTreatmentCode <dbl>, factsTreatment <chr>, burnSevLong <chr>,
    ## #   eco_type <chr>
…
    ## Joining, by = "clusterID"

    #names(patch_level_categorical_vars)

Joining patch-level dataframes to have the continuous predictor vars,
the categorical predictor vars, and the dependent variables in one df.

    patch_data  <- patch_level_percent_change_in_forest_cover %>%
      left_join(patch_level_continuous_vars, by = "clusterID") %>%
      left_join(patch_level_categorical_vars, by = "clusterID") %>%
      select(-clusterID, -n_pixels)

    patch_data

    ## # A tibble: 454 x 14
    ##    pct_change_tree burnSev northness eastness elevation slope preFireNBR
    ##              <dbl>   <dbl>     <dbl>    <dbl>     <dbl> <dbl>      <dbl>
    ##  1         -0.0215 0.00499    0.0298   0.0264     1079.  19.2       597.
    ##  2         -0.0833 1.08      -0.774    0.627      1629.  28.0       653.
    ##  3         -0.375  3.31       0.643    0.731      1177.  26.8       536.
    ##  4         -0.105  3.32       0.395    0.850      1153.  26.4       481.
    ##  5         -0.20   3.1        0.365    0.914      1023   27.9       479.
    ##  6         -0.05   3.55       0.0851   0.866      1088.  26.2       494.
    ##  7         -0.198  1.95      -0.719    0.322       691.  24.5       624.
    ##  8         -0.0820 1.90      -0.664   -0.251       676.  23.1       715.
    ##  9         -0.337  2.13      -0.884   -0.271       791.  27.5       636.
    ## 10          0      2         -0.913   -0.211       516.  20.9       731.
    ## # … with 444 more rows, and 7 more variables: distance <dbl>,
    ## #   ecotype_code <fct>, eco_type <fct>, factsTreatmentCode <fct>, WID <fct>,
    ## #   factsTreatment <dbl>, factsTreatmentLogical <fct>
…
A paired t-test shows that planting does increase forest regeneration 30
years after fire.

    clusters_with_treatment <- facts_treatment_df %>%
      drop_na(clusterID) %>%
      group_by(clusterID) %>%
      summarise(nb = length(n)) %>%
      filter(nb > 1) %>% pull(clusterID)

    facts_treatment_df %>% filter(clusterID %in% clusters_with_treatment)

    ## # A tibble: 608 x 7
    ## # Groups:   clusterID [304]
    ##    clusterID      pl  n_tr     n frac_tr lnfrac_tr treatment
    ##    <fct>       <int> <int> <int>   <dbl>     <dbl> <chr>    
    ##  1 0               0   129  2003  0.0644     -2.74 control  
    ##  2 0               1    37   202  0.183      -1.70 planted  
    ##  3 -1121539616     0     0     4  0         -13.8  control  
    ##  4 -1121539616     1     1     8  0.125      -2.08 planted  
    ##  5 -220987546      0     0     2  0         -13.8  control  
    ##  6 -220987546      1     0     2  0         -13.8  planted  
    ##  7 -710819746      0     3   166  0.0181     -4.01 control  
    ##  8 -710819746      1     0     1  0         -13.8  planted  
    ##  9 -1768238605     0     0    84  0         -13.8  control  
    ## 10 -1768238605     1     0     8  0         -13.8  planted  
    ## # … with 598 more rows
…
